{
  "project_info": {
    "project_number": "674215514607",
    "firebase_url": "https://zimmermap-212ee.firebaseio.com",
    "project_id": "zimmermap-212ee",
    "storage_bucket": "zimmermap-212ee.appspot.com"
  },
  "client": [
    {
      "client_info": {
        "mobilesdk_app_id": "1:674215514607:android:388eecfc37bc23be",
        "android_client_info": {
          "package_name": "com.zimmermap.zimmermap"
        }
      },
      "oauth_client": [
        {
          "client_id": "674215514607-tui4iut8ftmhrn9onltn2ct0jpk1puiv.apps.googleusercontent.com",
          "client_type": 3
        }
      ],
      "api_key": [
        {
          "current_key": "AIzaSyCEHPYdN1zOKn6xIcTIksAw8-ac_i82SUo"
        }
      ],
      "services": {
        "analytics_service": {
          "status": 1
        },
        "appinvite_service": {
          "status": 1,
          "other_platform_oauth_client": []
        },
        "ads_service": {
          "status": 2
        }
      }
    }
  ],
  "configuration_version": "1"
}